{
"Question":
	[
	  {"A" : "Forget who you were", "B" : "Forget who everyone else was"},
      {"A" : "Have a dog with a cat’s personality", "B" : "Have a cat with a dog’s personality"},
      {"A" : "Experience the beginning of planet earth", "B" : "Experience the end of planet earth"},
      {"A" : "Be invisible ", "B" : "Be fast"},
      {"A" : "Live in space", "B" : "Live under the sea"},
      {"A" : "Live one life that lasts 1,000 years", "B" : "Live 10 lives that last 100 years each"},
      {"A" : "Wear a snow suit in the desert", "B" : "Be naked in Antarctica"},
      {"A" : "Be stung by a jellyfish ", "B" : "Give up Facebook for a week"},
      {"A" : "Take a European sight-seeing vacation", "B" : "Take a relaxing Caribbean vacation"}
	]
}